Untitled
…
all_na_tables <- all_na_table(dat,"y")
all_na_tables[is.na(all_na_tables)] <- 0 
all_na_tables

write_csv(all_na_tables, "data/all_na_tables.csv")

tumor_6_months

xtab(dat,"tumor_6_months","y")

## `summarise()` has grouped output by 'tumor_6_months'. You can override using the
## `.groups` argument.

## # A tibble: 140 x 4
## # Groups:   tumor_6_months [140]
##    tumor_6_months   `0`   `1` survival_ratio
##             <dbl> <dbl> <dbl>          <dbl>
##  1              0   145   194          0.572
##  2              1    13    12          0.48 
##  3              2    15    13          0.464
##  4              3    16    18          0.529
##  5              4    14    19          0.576
##  6              5    17    18          0.514
##  7              6    23    25          0.521
##  8              7    12    27          0.692
##  9              8    18    18          0.5  
## 10              9    11    26          0.703
## # ... with 130 more rows
…
psa_6_months

xtab(dat,"psa_6_months","y")

## `summarise()` has grouped output by 'psa_6_months'. You can override using the
## `.groups` argument.

## # A tibble: 244 x 4
## # Groups:   psa_6_months [244]
##    psa_6_months   `0`   `1` survival_ratio
##           <dbl> <dbl> <dbl>          <dbl>
##  1          0      43    73          0.629
##  2          0.1     2     6          0.75 
##  3          0.2     3     4          0.571
##  4          0.3     7     4          0.364
##  5          0.4     1     6          0.857
##  6          0.5     4     6          0.6  
##  7          0.6     6     3          0.333
##  8          0.7     2     6          0.75 
##  9          0.8     8     6          0.429
## 10          0.9     4     7          0.636
## # ... with 234 more rows
…
psa_1_year

xtab(dat,"psa_1_year","y")

## `summarise()` has grouped output by 'psa_1_year'. You can override using the
## `.groups` argument.

## # A tibble: 287 x 4
## # Groups:   psa_1_year [287]
##    psa_1_year   `0`   `1` survival_ratio
##         <dbl> <dbl> <dbl>          <dbl>
##  1        0     410   595          0.592
##  2        0.1    14    15          0.517
##  3        0.2    16    18          0.529
##  4        0.3    12    22          0.647
##  5        0.4    10    21          0.677
##  6        0.5    15    16          0.516
##  7        0.6    21    17          0.447
##  8        0.7    16    21          0.568
##  9        0.8    22    17          0.436
## 10        0.9    22    25          0.532
## # ... with 277 more rows
…
tumor_1_year

xtab(dat,"tumor_1_year","y")

## `summarise()` has grouped output by 'tumor_1_year'. You can override using the
## `.groups` argument.

## # A tibble: 171 x 4
## # Groups:   tumor_1_year [171]
##    tumor_1_year   `0`   `1` survival_ratio
##           <dbl> <dbl> <dbl>          <dbl>
##  1            0  1029  1431          0.582
##  2            1    47    51          0.520
##  3            2    38    55          0.591
##  4            3    37    57          0.606
##  5            4    62    59          0.488
##  6            5    59    51          0.464
##  7            6    45    53          0.541
##  8            7    55    67          0.549
##  9            8    50    65          0.565
## 10            9    66    50          0.431
## # ... with 161 more rows
…
psa_diagnosis

xtab(dat,"psa_diagnosis","y")

## `summarise()` has grouped output by 'psa_diagnosis'. You can override using the
## `.groups` argument.

## # A tibble: 209 x 4
## # Groups:   psa_diagnosis [209]
##    psa_diagnosis   `0`   `1` survival_ratio
##            <dbl> <dbl> <dbl>          <dbl>
##  1           0.1     1     0            0  
##  2           0.9     0     1            1  
##  3           1.3     0     1            1  
##  4           1.4     0     1            1  
##  5           1.6     1     1            0.5
##  6           1.9     0     2            1  
##  7           2       0     3            1  
##  8           2.1     0     4            1  
##  9           2.2     0     2            1  
## 10           2.3     2     0            0  
## # ... with 199 more rows
…
weight

xtab(dat,"weight","y")

## `summarise()` has grouped output by 'weight'. You can override using the
## `.groups` argument.

## # A tibble: 156 x 4
## # Groups:   weight [156]
##    weight   `1`   `0` survival_ratio
##     <dbl> <dbl> <dbl>          <dbl>
##  1    118     1     0            1  
##  2    119     1     0            1  
##  3    122     0     1            0  
##  4    123     0     1            0  
##  5    124     0     1            0  
##  6    129     0     1            0  
##  7    130     0     2            0  
##  8    131     0     1            0  
##  9    132     0     4            0  
## 10    134     1     1            0.5
## # ... with 146 more rows
…
age

xtab(dat,"age","y")

## `summarise()` has grouped output by 'age'. You can override using the `.groups`
## argument.

## # A tibble: 72 x 4
## # Groups:   age [72]
##      age   `0`   `1` survival_ratio
##    <dbl> <dbl> <dbl>          <dbl>
##  1    32     1     0            0  
##  2    33     1     0            0  
##  3    35     0     1            1  
##  4    36     1     0            0  
##  5    38     1     0            0  
##  6    39     1     1            0.5
##  7    40     0     1            1  
##  8    41     0     1            1  
##  9    42     1     1            0.5
## 10    43     2     0            0  
## # ... with 62 more rows
…
tumor_diagnosis

xtab(dat,"tumor_diagnosis","y")

## `summarise()` has grouped output by 'tumor_diagnosis'. You can override using
## the `.groups` argument.

## # A tibble: 149 x 4
## # Groups:   tumor_diagnosis [149]
##    tumor_diagnosis   `0`   `1` survival_ratio
##              <dbl> <dbl> <dbl>          <dbl>
##  1               7     1     0          0    
##  2               8     1     1          0.5  
##  3              11     2     2          0.5  
##  4              12     1     2          0.667
##  5              13     3     3          0.5  
##  6              14     6     7          0.538
##  7              15     3     6          0.667
##  8              16     6     3          0.333
##  9              17     2     6          0.75 
## 10              18    14    16          0.533
## # ... with 139 more rows
…
dat_no_na_symptom <- dat_no_na_symptom %>% 
  select(-symptoms)

dat_no_na_symptom[is.na(dat_no_na_symptom)==1] <- 0

library(textrecipes)

recipe(y~.,data = dat_no_na) %>% 
  step_tokenize(symptoms,options = list(strip_punct = T,
                                        lowercase = T)) %>% 
  step_tf(symptoms) %>% 
  prep() %>% 
  bake(dat_no_na)

## # A tibble: 10,358 x 45
##    diagnosis_date gleason_score t_score n_score m_score stage   age  race height
##             <dbl>         <dbl> <fct>   <fct>   <fct>   <fct> <dbl> <dbl>  <dbl>
##  1            156             4 T1c     N0      M0      I        86     4     66
##  2             37             8 T3a     N1      M0      IV       66     2     70
##  3            335             8 T4      N0      M0      IV       78     4     70
##  4            182             3 T1a     N0      M0      IIA      75     4     69
##  5            278             8 T1b     N0      M0      IIB      85     4     67
##  6            339             8 T4      N0      M0      IV       78     4     70
##  7            308             7 T1a     N0      M0      IIA      83     2     68
##  8            308             6 T3c     N0      M0      III      59     4     70
##  9              6             7 T2b     N0      M0      IIA      80     4     70
## 10            215             7 T2c     N0      M0      IIB      70     4     70
## # ... with 10,348 more rows, and 36 more variables: weight <dbl>,
## #   family_history <dbl>, first_degree_history <dbl>, previous_cancer <dbl>,
## #   smoker <dbl>, side <fct>, tumor_diagnosis <dbl>, tumor_1_year <dbl>,
## #   psa_diagnosis <dbl>, psa_1_year <dbl>, tea <dbl>, rd_thrpy <dbl>,
## #   h_thrpy <dbl>, chm_thrpy <dbl>, cry_thrpy <dbl>, brch_thrpy <dbl>,
## #   rad_rem <dbl>, multi_thrpy <dbl>, survival_1_year <dbl>, y <dbl>,
## #   tf_symptoms_o01 <dbl>, tf_symptoms_o08 <dbl>, tf_symptoms_o09 <dbl>, ...
…
