Mission Hospital Case: Workbook
…
# Fitting
set.seed(8675309)
multiLM.ft <- multiLM.wf %>% fit(data=d.train)

# Fit Summary
multiLM.sm <- multiLM.ft %>% 
  extract_fit_parsnip() %>% 
  tidy()

multiLM.sm %>% 
  #filter(term != "(Intercept)") %>% 
  arrange(p.value)

## # A tibble: 26 x 5
##    term                   estimate std.error statistic p.value
##    <chr>                     <dbl>     <dbl>     <dbl>   <dbl>
##  1 demo_age                  2337.      869.     2.69  0.00797
##  2 body_hrpulse              1258.      567.     2.22  0.0281 
##  3 hist_diabetes2TRUE       98639.    45519.     2.17  0.0318 
##  4 meas_CREATININE          61224.    34452.     1.78  0.0776 
##  5 body_bphigh              -1164.      694.    -1.68  0.0958 
##  6 arr_walkinTRUE           87433.    64116.     1.36  0.175  
##  7 hist_otherTRUE          -49817.    36954.    -1.35  0.180  
##  8 hist_hypertension2TRUE  -54515.    44894.    -1.21  0.227  
##  9 body_rr                   3068.     2634.     1.16  0.246  
## 10 wgt_underTRUE           -36983.    37263.    -0.992 0.323  
## # ... with 16 more rows
…
