Untitled
…
fit.logreg <- wf.logreg %>% fit(d.train)

Coefficient-based VarImp

tidy(fit.logreg) %>% 
  mutate(odds_ratio = round(exp(estimate),2)) %>% 
  mutate(sig        = case_when(p.value <= .001 ~ "***",
                                p.value <= .01 & p.value > 0.001 ~ "**",
                                p.value <= .05 & p.value > 0.01 ~ "*")) %>% 
  select(term, odds_ratio, p.value, sig) %>% 
  filter(term != "(Intercept)") %>% 
  arrange(p.value)

## # A tibble: 35 x 4
##    term          odds_ratio  p.value sig  
##    <chr>              <dbl>    <dbl> <chr>
##  1 Age                 4.33 7.72e-20 ***  
##  2 Hypertension        1.52 1.60e- 4 ***  
##  3 Racegrp_hispa       0.65 3.02e- 4 ***  
##  4 Diabetes            1.22 2.25e- 3 **   
##  5 PVD                 1.11 2.36e- 2 *    
##  6 Anemia              1.17 2.41e- 2 *    
##  7 HDL                 0.8  3.06e- 2 *    
##  8 Stroke              1.13 4.65e- 2 *    
##  9 Activity_X3         0.79 5.42e- 2 <NA> 
## 10 SBP                 0.84 7.64e- 2 <NA> 
## # ... with 25 more rows
…
fit.logreg.downsample <- wf.logreg.downsample %>% fit(d.train)

Coefficient-based VarImp

tidy(fit.logreg.downsample) %>% 
  mutate(odds_ratio = round(exp(estimate),2)) %>% 
  mutate(sig        = case_when(p.value <= .001 ~ "***",
                                p.value <= .01 & p.value > 0.001 ~ "**",
                                p.value <= .05 & p.value > 0.01 ~ "*")) %>% 
  select(term, odds_ratio, p.value, sig) %>% 
  filter(term != "(Intercept)") %>% 
  arrange(p.value)

## # A tibble: 35 x 4
##    term          odds_ratio  p.value sig  
##    <chr>              <dbl>    <dbl> <chr>
##  1 Age                 6.43 6.07e-10 ***  
##  2 Diabetes            1.75 1.00e- 4 ***  
##  3 HDL                 0.62 1.12e- 2 *    
##  4 Smoker              0.69 1.95e- 2 *    
##  5 Activity_X3         0.64 3.25e- 2 *    
##  6 Racegrp_hispa       0.65 3.27e- 2 *    
##  7 Income              1.47 4.27e- 2 *    
##  8 CVD                 1.45 4.66e- 2 *    
##  9 Anemia              1.3  5.67e- 2 <NA> 
## 10 Hypertension        1.43 5.75e- 2 <NA> 
## # ... with 25 more rows
…
fit.logreg.upsample <- wf.logreg.upsample %>% fit(d.train)

Coefficient-based VarImp

tidy(fit.logreg.upsample) %>% 
  mutate(odds_ratio = round(exp(estimate),2)) %>% 
  mutate(sig        = case_when(p.value <= .001 ~ "***",
                                p.value <= .01 & p.value > 0.001 ~ "**",
                                p.value <= .05 & p.value > 0.01 ~ "*")) %>% 
  select(term, odds_ratio, p.value, sig) %>% 
  filter(term != "(Intercept)") %>% 
  arrange(p.value)

## # A tibble: 35 x 4
##    term          odds_ratio   p.value sig  
##    <chr>              <dbl>     <dbl> <chr>
##  1 Age                 4.84 1.58e-122 ***  
##  2 Hypertension        1.65 5.66e- 27 ***  
##  3 Racegrp_hispa       0.61 1.04e- 23 ***  
##  4 Diabetes            1.37 5.78e- 22 ***  
##  5 HDL                 0.72 1.42e- 13 ***  
##  6 Activity_X3         0.75 8.10e-  9 ***  
##  7 Stroke              1.23 1.23e-  8 ***  
##  8 Anemia              1.24 1.70e-  8 ***  
##  9 SBP                 0.82 1.15e-  5 ***  
## 10 LDL                 1.18 3.54e-  5 ***  
## # ... with 25 more rows
…
fit.logreg.smote <- wf.logreg.smote %>% fit(d.train)

Coefficient-based VarImp

tidy(fit.logreg.smote) %>% 
  mutate(odds_ratio = round(exp(estimate),2)) %>% 
  mutate(sig        = case_when(p.value <= .001 ~ "***",
                                p.value <= .01 & p.value > 0.001 ~ "**",
                                p.value <= .05 & p.value > 0.01 ~ "*")) %>% 
  select(term, odds_ratio, p.value, sig) %>% 
  filter(term != "(Intercept)") %>% 
  arrange(p.value)

## # A tibble: 35 x 4
##    term          odds_ratio   p.value sig  
##    <chr>              <dbl>     <dbl> <chr>
##  1 Age                 6.72 2.29e-120 ***  
##  2 Racegrp_hispa       0.47 4.31e- 36 ***  
##  3 Hypertension        1.72 3.10e- 24 ***  
##  4 HDL                 0.61 1.32e- 19 ***  
##  5 Diabetes            1.33 2.90e- 15 ***  
##  6 Activity_X3         0.64 2.68e- 13 ***  
##  7 Stroke              1.24 2.00e-  8 ***  
##  8 SBP                 0.75 6.56e-  8 ***  
##  9 Dyslipidemia        0.8  3.80e-  6 ***  
## 10 Anemia              1.22 6.33e-  6 ***  
## # ... with 25 more rows
…
set.seed(8675309)
fit.final <- wf.final %>% 
  last_fit(splits)

fit <- wf.final %>% fit(d.other)

tidy(fit) %>% 
  select(-penalty) %>% 
  filter(term != "(Intercept)") %>% 
  arrange(desc(abs(estimate)))

## # A tibble: 35 x 2
##    term          estimate
##    <chr>            <dbl>
##  1 Age            0.915  
##  2 Hypertension   0.260  
##  3 Racegrp_hispa -0.147  
##  4 CVD            0.0239 
##  5 Insured        0.0222 
##  6 Diabetes       0.0115 
##  7 Stroke         0.00360
##  8 Female         0      
##  9 Educ           0      
## 10 Unmarried      0      
## # ... with 25 more rows
…
